[gd_scene load_steps=3 format=2]

[ext_resource path="res://Objects/Floor.tscn" type="PackedScene" id=1]
[ext_resource path="res://Objects/Player.tscn" type="PackedScene" id=2]

[node name="Spatial" type="Spatial"]

[node name="Floor" parent="." instance=ExtResource( 1 )]
transform = Transform( 1, 0, 0, 0, 1, 0, 0, 0, 1, -0.0224128, -0.0119963, 0.0163798 )

[node name="Player" parent="." instance=ExtResource( 2 )]
transform = Transform( 0.5, 0, 0, 0, 0.5, 0, 0, 0, 0.5, 0, 2.25292, 0 )
