[gd_scene load_steps=6 format=2]

[ext_resource path="res://Objects/Player.gd" type="Script" id=1]
[ext_resource path="res://Objects/Camera.gd" type="Script" id=2]

[sub_resource type="CapsuleMesh" id=1]

[sub_resource type="SpatialMaterial" id=2]
albedo_color = Color( 1, 0.607843, 0, 1 )
metallic_specular = 0.0

[sub_resource type="CapsuleShape" id=3]

[node name="Player" type="KinematicBody"]
transform = Transform( 0.5, 0, 0, 0, 0.5, 0, 0, 0, 0.5, 0, 0, 0 )
script = ExtResource( 1 )

[node name="MeshInstance" type="MeshInstance" parent="."]
transform = Transform( 1, 0, 0, 0, 1.5, 0, 0, 0, 0.75, 0, 0, 0 )
mesh = SubResource( 1 )
material/0 = SubResource( 2 )

[node name="CollisionShape" type="CollisionShape" parent="."]
transform = Transform( 1, 0, 0, 0, 1.5, 0, 0, 0, 0.75, 0, 0, 0 )
shape = SubResource( 3 )

[node name="SpringArm" type="SpringArm" parent="."]
transform = Transform( 1, 0, 0, 0, 1, 0, 0, 0, 1, 0, 0, 0 )
spring_length = 10.0
script = ExtResource( 2 )

[node name="Camera" type="Camera" parent="SpringArm"]
transform = Transform( 2, 0, 0, 0, 2, 0, 0, 0, 2, 0, 0, 10.6239 )
